{
  "formatVersion": 1,
  "database": {
    "version": 6,
    "identityHash": "62ec7858e3f2a83a33e0383359183489",
    "entities": [
      {
        "tableName": "coins",
        "createSql": "CREATE TABLE IF NOT EXISTS `${TABLE_NAME}` (`paymail` TEXT NOT NULL, `derivationPath` TEXT NOT NULL, `pathIndex` INTEGER NOT NULL, `address` TEXT NOT NULL, `txId` TEXT NOT NULL, `outputIndex` INTEGER NOT NULL, `sats` INTEGER NOT NULL, `txHeight` INTEGER NOT NULL, PRIMARY KEY(`address`, `txId`, `outputIndex`))",
        "fields": [
          {
            "fieldPath": "paymail",
            "columnName": "paymail",
            "affinity": "TEXT",
            "notNull": true
          },
          {
            "fieldPath": "derivationPath",
            "columnName": "derivationPath",
            "affinity": "TEXT",
            "notNull": true
          },
          {
            "fieldPath": "pathIndex",
            "columnName": "pathIndex",
            "affinity": "INTEGER",
            "notNull": true
          },
          {
            "fieldPath": "address",
            "columnName": "address",
            "affinity": "TEXT",
            "notNull": true
          },
          {
            "fieldPath": "txId",
            "columnName": "txId",
            "affinity": "TEXT",
            "notNull": true
          },
          {
            "fieldPath": "outputIndex",
            "columnName": "outputIndex",
            "affinity": "INTEGER",
            "notNull": true
          },
          {
            "fieldPath": "sats",
            "columnName": "sats",
            "affinity": "INTEGER",
            "notNull": true
          },
          {
            "fieldPath": "txHeight",
            "columnName": "txHeight",
            "affinity": "INTEGER",
            "notNull": true
          }
        ],
        "primaryKey": {
          "autoGenerate": false,
          "columnNames": [
            "address",
            "txId",
            "outputIndex"
          ]
        },
        "indices": [],
        "foreignKeys": []
      },
      {
        "tableName": "block_sync_info",
        "createSql": "CREATE TABLE IF NOT EXISTS `${TABLE_NAME}` (`height` INTEGER NOT NULL, `paymail` TEXT NOT NULL, `time` INTEGER NOT NULL, `hash` TEXT NOT NULL, `merkleRoot` TEXT NOT NULL, `previousBlockHash` TEXT NOT NULL, PRIMARY KEY(`paymail`, `height`))",
        "fields": [
          {
            "fieldPath": "height",
            "columnName": "height",
            "affinity": "INTEGER",
            "notNull": true
          },
          {
            "fieldPath": "paymail",
            "columnName": "paymail",
            "affinity": "TEXT",
            "notNull": true
          },
          {
            "fieldPath": "time",
            "columnName": "time",
            "affinity": "INTEGER",
            "notNull": true
          },
          {
            "fieldPath": "hash",
            "columnName": "hash",
            "affinity": "TEXT",
            "notNull": true
          },
          {
            "fieldPath": "merkleRoot",
            "columnName": "merkleRoot",
            "affinity": "TEXT",
            "notNull": true
          },
          {
            "fieldPath": "previousBlockHash",
            "columnName": "previousBlockHash",
            "affinity": "TEXT",
            "notNull": true
          }
        ],
        "primaryKey": {
          "autoGenerate": false,
          "columnNames": [
            "paymail",
            "height"
          ]
        },
        "indices": [],
        "foreignKeys": []
      },
      {
        "tableName": "decrypted_message",
        "createSql": "CREATE TABLE IF NOT EXISTS `${TABLE_NAME}` (`txId` TEXT NOT NULL, `ownerPaymail` TEXT NOT NULL, `createdAt` INTEGER NOT NULL, `updatedAt` INTEGER NOT NULL, `replyToTxId` TEXT, `amountUsd` TEXT NOT NULL, `numAmountUsd` REAL NOT NULL, `to` TEXT NOT NULL, `cc` TEXT NOT NULL, `subject` TEXT NOT NULL, `salesPitch` TEXT, `fromName` TEXT, `from` TEXT NOT NULL, `decryptedMessage` TEXT NOT NULL, `destinationSeen` INTEGER NOT NULL, `destinationPaid` INTEGER NOT NULL, `bucket` TEXT NOT NULL, PRIMARY KEY(`txId`, `ownerPaymail`))",
        "fields": [
          {
            "fieldPath": "txId",
            "columnName": "txId",
            "affinity": "TEXT",
            "notNull": true
          },
          {
            "fieldPath": "ownerPaymail",
            "columnName": "ownerPaymail",
            "affinity": "TEXT",
            "notNull": true
          },
          {
            "fieldPath": "createdAt",
            "columnName": "createdAt",
            "affinity": "INTEGER",
            "notNull": true
          },
          {
            "fieldPath": "updatedAt",
            "columnName": "updatedAt",
            "affinity": "INTEGER",
            "notNull": true
          },
          {
            "fieldPath": "replyToTxId",
            "columnName": "replyToTxId",
            "affinity": "TEXT",
            "notNull": false
          },
          {
            "fieldPath": "amountUsd",
            "columnName": "amountUsd",
            "affinity": "TEXT",
            "notNull": true
          },
          {
            "fieldPath": "numAmountUsd",
            "columnName": "numAmountUsd",
            "affinity": "REAL",
            "notNull": true
          },
          {
            "fieldPath": "to",
            "columnName": "to",
            "affinity": "TEXT",
            "notNull": true
          },
          {
            "fieldPath": "cc",
            "columnName": "cc",
            "affinity": "TEXT",
            "notNull": true
          },
          {
            "fieldPath": "subject",
            "columnName": "subject",
            "affinity": "TEXT",
            "notNull": true
          },
          {
            "fieldPath": "salesPitch",
            "columnName": "salesPitch",
            "affinity": "TEXT",
            "notNull": false
          },
          {
            "fieldPath": "fromName",
            "columnName": "fromName",
            "affinity": "TEXT",
            "notNull": false
          },
          {
            "fieldPath": "from",
            "columnName": "from",
            "affinity": "TEXT",
            "notNull": true
          },
          {
            "fieldPath": "decryptedMessage",
            "columnName": "decryptedMessage",
            "affinity": "TEXT",
            "notNull": true
          },
          {
            "fieldPath": "destinationSeen",
            "columnName": "destinationSeen",
            "affinity": "INTEGER",
            "notNull": true
          },
          {
            "fieldPath": "destinationPaid",
            "columnName": "destinationPaid",
            "affinity": "INTEGER",
            "notNull": true
          },
          {
            "fieldPath": "bucket",
            "columnName": "bucket",
            "affinity": "TEXT",
            "notNull": true
          }
        ],
        "primaryKey": {
          "autoGenerate": false,
          "columnNames": [
            "txId",
            "ownerPaymail"
          ]
        },
        "indices": [],
        "foreignKeys": []
      },
      {
        "tableName": "cached_derived_address",
        "createSql": "CREATE TABLE IF NOT EXISTS `${TABLE_NAME}` (`paymail` TEXT NOT NULL, `pathIndex` INTEGER NOT NULL, `address` TEXT NOT NULL, PRIMARY KEY(`paymail`, `pathIndex`))",
        "fields": [
          {
            "fieldPath": "paymail",
            "columnName": "paymail",
            "affinity": "TEXT",
            "notNull": true
          },
          {
            "fieldPath": "pathIndex",
            "columnName": "pathIndex",
            "affinity": "INTEGER",
            "notNull": true
          },
          {
            "fieldPath": "address",
            "columnName": "address",
            "affinity": "TEXT",
            "notNull": true
          }
        ],
        "primaryKey": {
          "autoGenerate": false,
          "columnNames": [
            "paymail",
            "pathIndex"
          ]
        },
        "indices": [],
        "foreignKeys": []
      }
    ],
    "views": [],
    "setupQueries": [
      "CREATE TABLE IF NOT EXISTS room_master_table (id INTEGER PRIMARY KEY,identity_hash TEXT)",
      "INSERT OR REPLACE INTO room_master_table (id,identity_hash) VALUES(42, '62ec7858e3f2a83a33e0383359183489')"
    ]
  }
}